{
  "slug": "SlimeChild-Substation-OpenSource",
  "name": "Substation Open Source",
  "version": "2.2.6",
  "license": "BSD-3-Clause-Attribution",
  "brand": "Slime Child Audio",
  "author": "Slime Child Audio",
  "authorEmail": "contact@slimechildaudio.com",
  "authorUrl": "https://slimechildaudio.com/",
  "pluginUrl": "https://slimechildaudio.com/substation",
  "manualUrl": "https://slimechildaudio.com/substation/manual",
  "donateUrl": "https://slimechildaudio.com/donate",
  "changelogUrl": "https://slimechildaudio.com/substation/changes",
  "description": "A Subharmonic, Polyrhythmic Synthesis Toolkit",
  "modules": [
    {
      "slug": "SlimeChild-Substation-OpenSource-Envelopes",
      "name": "Envelopes",
      "description": "Dual Semi-Interruptable Attack-Decay Envelope Generators",
      "manualUrl": "https://slimechildaudio.com/substation/manual/envelopes/",
      "tags": [
        "Envelope generator",
        "Dual"
      ]
    },
    {
      "slug": "SlimeChild-Substation-OpenSource-Filter",
      "name": "LP4 Filter",
      "description": "Physically-modelled 24dB per Octave Ladder Lowpass",
      "manualUrl": "https://slimechildaudio.com/substation/manual/filter/",
      "tags": [
        "Filter",
        "Physical modeling",
        "Polyphonic"
      ]
    },
    {
      "slug": "SlimeChild-Substation-OpenSource-Mixer",
      "name": "Saturating Mixer",
      "description": "Chainable Non-linear Mixer",
      "manualUrl": "https://slimechildaudio.com/substation/manual/mixer/",
      "tags": [
        "Mixer",
        "Distortion",
        "Physical modeling"
      ]
    },
    {
      "slug": "SlimeChild-Substation-OpenSource-Quantizer",
      "name": "Quantizer",
      "description": "Variable-Intonation Transposing Quantizer",
      "manualUrl": "https://slimechildaudio.com/substation/manual/quantizer/",
      "tags": [
        "Quantizer",
        "Polyphonic"
      ]
    },
    {
      "slug": "SlimeChild-Substation-OpenSource-PolySeq",
      "name": "Polyrhythm Sequencer",
      "description": "Three-track Polyrhythm Sequencer",
      "manualUrl": "https://slimechildaudio.com/substation/manual/polyseq/",
      "tags": [
        "Sequencer",
        "Clock modulator"
      ]
    },
    {
      "slug": "SlimeChild-Substation-OpenSource-VCA",
      "name": "VCA",
      "description": "Linear Voltage-Controlled Amplifier",
      "manualUrl": "https://slimechildaudio.com/substation/manual/vca/",
      "tags": [
        "Voltage-controlled amplifier",
        "Polyphonic"
      ]
    },
    {
      "slug": "SlimeChild-Substation-OpenSource-SubOscillator",
      "name": "Sub-Oscillator",
      "description": "Subharmonic Physically-modelled Self-Modulating Oscillator",
      "manualUrl": "https://slimechildaudio.com/substation/manual/suboscillator/",
      "tags": [
        "Oscillator",
        "Physical modeling"
      ]
    },
    {
      "slug": "SlimeChild-Substation-OpenSource-Clock",
      "name": "Clock",
      "description": "Multi-Rate Clock Generator",
      "manualUrl": "https://slimechildaudio.com/substation/manual/clock/",
      "tags": [
        "Clock generator"
      ]
    },
    {
      "slug": "SlimeChild-Substation-OpenSource-Blank-4",
      "name": "Blank (4HP)",
      "description": "Decorative Panel (4HP)",
      "tags": [
        "Blank"
      ]
    },
    {
      "slug": "SlimeChild-Substation-OpenSource-Blank-7",
      "name": "Blank (7HP)",
      "description": "Decorative Panel (7HP)",
      "tags": [
        "Blank"
      ]
    },
    {
      "slug": "SlimeChild-Substation-OpenSource-Filter-Expander",
      "name": "Filter+",
      "description": "Expander for LP4 Filter",
      "manualUrl": "https://slimechildaudio.com/substation/manual/filter-plus/",
      "tags": [
        "Filter",
        "Polyphonic",
        "Physical modeling",
        "Expander"
      ]
    }
  ]
}